eax - akkumulator
ebx - base
ecx - counter
edx - data
edi -
esi -
ebp - base pointer
esp - stack pointer


mov eax, 3
mov ebx, 2
mul ebx ; eax = eax * ebx

xor edx, edx  || move edx, 0
mov eax, 150
mov ebx, 100
div ebx;  eax == 1, edx == 50

div eax:edx

(3+7) * 21 - 50 / 10